UART/UARTTEST.vcd
$date
	Tue Feb 12 11:07:58 2019
$end
$version
	Icarus Verilog
$end
$timescale
	1s
$end
$scope module UARTTEST $end
$var wire 8 ! DataReceived [7:0] $end
$var wire 1 " DataReady $end
$var reg 1 # clk16x $end
$var reg 1 $ rst_n $end
$var reg 1 % rx $end
$scope module UART1 $end
$var wire 1 # clk16x $end
$var wire 1 & neg_tri $end
$var wire 1 $ rst_n $end
$var wire 1 % rx $end
$var reg 1 " DataReady $end
$var reg 8 ' DataReceived [7:0] $end
$var reg 8 ( cnt [7:0] $end
$var reg 1 ) cnt_en $end
$var reg 4 * count [3:0] $end
$var reg 1 + trigger_r0 $end
$upscope $end
$upscope $end
$enddefinitions $end
#0
$dumpvars
0+
b0 *
0)
b0 (
b0 '
0&
0%
0$
0#
0"
b0 !
$end
#1
1#
#2
0#
1$
#3
1#
#4
0#
0$
#5
1#
#6
0#
1$
#7
1#
#8
0#
1%
#9
1+
1#
#10
0#
#11
1#
#12
0#
#13
1#
#14
0#
#15
1#
#16
0#
#17
1#
#18
0#
#19
1#
#20
0#
#21
1#
#22
0#
#23
1#
#24
0#
#25
1#
#26
0#
#27
1#
#28
0#
#29
1#
#30
0#
#31
1#
#32
0#
#33
1#
#34
0#
#35
1#
#36
0#
#37
1#
#38
0#
#39
1#
#40
1&
0#
0%
#41
0&
0+
1)
1#
#42
0#
#43
b1 (
1#
#44
0#
#45
b10 (
1#
#46
0#
#47
b11 (
1#
#48
0#
#49
b100 (
1#
#50
0#
#51
b101 (
1#
#52
0#
#53
b110 (
1#
#54
0#
#55
b111 (
1#
#56
0#
#57
b1000 (
1#
#58
0#
#59
b1001 (
1#
#60
0#
#61
b1010 (
1#
#62
0#
#63
b1011 (
1#
#64
0#
#65
b1100 (
1#
#66
0#
#67
b1101 (
1#
#68
0#
#69
b1110 (
1#
#70
0#
#71
b1111 (
1#
#72
0#
#73
b10000 (
1#
#74
0#
#75
b10001 (
1#
#76
0#
#77
b10010 (
1#
#78
0#
#79
b10011 (
1#
#80
0#
#81
b10100 (
1#
#82
0#
#83
b10101 (
1#
#84
0#
#85
b10110 (
1#
#86
0#
#87
b10111 (
1#
#88
0#
#89
b11000 (
1#
#90
0#
#91
b11001 (
b1 *
1#
#92
0#
#93
b11010 (
1#
#94
0#
#95
b11011 (
1#
#96
0#
#97
b11100 (
1#
#98
0#
#99
b11101 (
1#
#100
0#
#101
b11110 (
1#
#102
0#
#103
b11111 (
1#
#104
0#
1%
#105
1+
b100000 (
1#
#106
0#
#107
b100001 (
1#
#108
0#
#109
b100010 (
1#
#110
0#
#111
b100011 (
1#
#112
0#
#113
b100100 (
1#
#114
0#
#115
b100101 (
1#
#116
0#
#117
b100110 (
1#
#118
0#
#119
b100111 (
1#
#120
0#
#121
b101000 (
1#
#122
0#
#123
b10 !
b10 '
b101001 (
b10 *
1#
#124
0#
#125
b101010 (
1#
#126
0#
#127
b101011 (
1#
#128
0#
#129
b101100 (
1#
#130
0#
#131
b101101 (
1#
#132
0#
#133
b101110 (
1#
#134
0#
#135
b101111 (
1#
#136
0#
#137
b110000 (
1#
#138
0#
#139
b110001 (
1#
#140
0#
#141
b110010 (
1#
#142
0#
#143
b110011 (
1#
#144
0#
#145
b110100 (
1#
#146
0#
#147
b110101 (
1#
#148
0#
#149
b110110 (
1#
#150
0#
#151
b110111 (
1#
#152
0#
#153
b111000 (
1#
#154
0#
#155
b110 !
b110 '
b111001 (
b11 *
1#
#156
0#
#157
b111010 (
1#
#158
0#
#159
b111011 (
1#
#160
0#
#161
b111100 (
1#
#162
0#
#163
b111101 (
1#
#164
0#
#165
b111110 (
1#
#166
0#
#167
b111111 (
1#
#168
0#
#169
b1000000 (
1#
#170
0#
#171
b1000001 (
1#
#172
0#
#173
b1000010 (
1#
#174
0#
#175
b1000011 (
1#
#176
0#
#177
b1000100 (
1#
#178
0#
#179
b1000101 (
1#
#180
0#
#181
b1000110 (
1#
#182
0#
#183
b1000111 (
1#
#184
0#
#185
b1001000 (
1#
#186
0#
#187
b1110 !
b1110 '
b1001001 (
b100 *
1#
#188
0#
#189
b1001010 (
1#
#190
0#
#191
b1001011 (
1#
#192
0#
#193
b1001100 (
1#
#194
0#
#195
b1001101 (
1#
#196
0#
#197
b1001110 (
1#
#198
0#
#199
b1001111 (
1#
#200
0#
#201
b1010000 (
1#
#202
0#
#203
b1010001 (
1#
#204
0#
#205
b1010010 (
1#
#206
0#
#207
b1010011 (
1#
#208
0#
#209
b1010100 (
1#
#210
0#
#211
b1010101 (
1#
#212
0#
#213
b1010110 (
1#
#214
0#
#215
b1010111 (
1#
#216
0#
#217
b1011000 (
1#
#218
0#
#219
b11110 !
b11110 '
b1011001 (
b101 *
1#
#220
0#
#221
b1011010 (
1#
#222
0#
#223
b1011011 (
1#
#224
0#
#225
b1011100 (
1#
#226
0#
#227
b1011101 (
1#
#228
0#
#229
b1011110 (
1#
#230
0#
#231
b1011111 (
1#
#232
1&
0#
0%
#233
0&
0+
b1100000 (
1#
#234
0#
#235
b1100001 (
1#
#236
0#
#237
b1100010 (
1#
#238
0#
#239
b1100011 (
1#
#240
0#
#241
b1100100 (
1#
#242
0#
#243
b1100101 (
1#
#244
0#
#245
b1100110 (
1#
#246
0#
#247
b1100111 (
1#
#248
0#
#249
b1101000 (
1#
#250
0#
#251
b1101001 (
b110 *
1#
#252
0#
#253
b1101010 (
1#
#254
0#
#255
b1101011 (
1#
#256
0#
#257
b1101100 (
1#
#258
0#
#259
b1101101 (
1#
#260
0#
#261
b1101110 (
1#
#262
0#
#263
b1101111 (
1#
#264
0#
#265
b1110000 (
1#
#266
0#
#267
b1110001 (
1#
#268
0#
#269
b1110010 (
1#
#270
0#
#271
b1110011 (
1#
#272
0#
#273
b1110100 (
1#
#274
0#
#275
b1110101 (
1#
#276
0#
#277
b1110110 (
1#
#278
0#
#279
b1110111 (
1#
#280
0#
#281
b1111000 (
1#
#282
0#
#283
b1111001 (
b111 *
1#
#284
0#
#285
b1111010 (
1#
#286
0#
#287
b1111011 (
1#
#288
0#
#289
b1111100 (
1#
#290
0#
#291
b1111101 (
1#
#292
0#
#293
b1111110 (
1#
#294
0#
#295
b1111111 (
1#
#296
0#
1%
#297
1+
b10000000 (
1#
#298
0#
#299
b10000001 (
1#
#300
0#
#301
b10000010 (
1#
#302
0#
#303
b10000011 (
1#
#304
0#
#305
b10000100 (
1#
#306
0#
#307
b10000101 (
1#
#308
0#
#309
b10000110 (
1#
#310
0#
#311
b10000111 (
1#
#312
0#
#313
b10001000 (
1#
#314
0#
#315
b10011110 !
b10011110 '
b10001001 (
b1000 *
1#
#316
0#
#317
b10001010 (
1#
#318
0#
#319
b10001011 (
1#
#320
0#
#321
b10001100 (
1#
#322
0#
#323
b10001101 (
1#
#324
0#
#325
b10001110 (
1#
#326
0#
#327
b10001111 (
1#
#328
1&
0#
0%
#329
0&
0+
b10010000 (
1#
#330
0#
#331
b10010001 (
1#
#332
0#
#333
b10010010 (
1#
#334
0#
#335
b10010011 (
1#
#336
0#
#337
b10010100 (
1#
#338
0#
#339
b10010101 (
1#
#340
0#
#341
b10010110 (
1#
#342
0#
#343
b10010111 (
1#
#344
0#
#345
b10011000 (
1#
#346
0#
#347
1"
b10011001 (
0)
1#
#348
0#
#349
b0 (
0"
1#
#350
0#
#351
1#
#352
0#
#353
1#
#354
0#
#355
1#
#356
0#
#357
1#
#358
0#
#359
1#
#360
0#
1%
#361
1+
1#
